["Regel",
"Streifen",
"Tatort",
"Strip",
"Krampf",
"Stab",
"Duschgel",
"Schwellung",
"Bolzen",
"Kurven",
"Verlängerung",
"Nonne",
"Risette",
"Droge",
"Telefon",
"Spitze",
"Regenbogen",
"Klemptner",
"Test",
"Kessel",
"Müdigkeit",
"Zigarre",
"Blümchen",
"Verfahren",
"Verhütung",
"Rausch",
"Cocktail",
"Schleier",
"Vermächtnis",
"Hengst",
"Tablette",
"Kuss",
"Verbrechen",
"Service",
"Mütze",
"Glatze",
"Papst",
"Schwalbe",
"Beziehung",
"Haut",
"Hehler",
"Dildo",
"Panik",
"Sahne",
"Porno",
"Messie",
"Opfer",
"Handschellen",
"Tugend",
"Kiste",
"Gewalt",
"Ader",
"Lache",
"Feind",
"Lümmel",
"Massaker",
"Ballon",
"Sauna",
"Sex",
"Faschist",
"Bruder",
"Wehen",
"Vulkan",
"Oma",
"Lotus",
"Stopp",
"Piercing",
"Bordell",
"Jungfrau",
"Stoff",
"Ei",
"Show",
"Gefängnis",
"Fleisch",
"Locken",
"Mallorca",
"Teppich",
"Solo",
"Fetisch",
"Kamasutra",
"Bagger",
"Samen",
"Lawine",
"Hammer",
"Erdbeere",
"Scham",
"Milch",
"Zorn",
"Erregung",
"Kult",
"Video",
"Schnalle",
"Pfirsich",
"Entgleisung",
"Delta",
"Aktion",
"Rasur",
"Stroh",
"Nippel",
"Gigolo",
"Geschütz",
"Metro",
"Bier",
"Knoten",
"Gurke",
"Kette",
"Jucken",
"Fantasie",
"Geld",
"Frosch",
"Hintern",
"Korruption",
"Vene",
"Stellung",
"Pickel",
"Hubraum",
"Thron",
"Zunge",
"Latte",
"Stress",
"Esel",
"Schluck",
"Biest",
"Kirsche",
"Wolllüste",
"Geisel",
"Bruch",
"Fehler",
"Tüte",
"Hass",
"Limo",
"Altar",
"Diät",
"Angel",
"Macho",
"Busen",
"Jaguar",
"Kanone",
"Köttel",
"Nymphe",
"Juwelen",
"Hacke",
"Gelage",
"Kondition",
"Dübel",
"Hose",
"Raub",
"Sekt",
"Make-up",
"Schuss",
"Drohne",
"Stahl",
"Bauch",
"Skandal",
"Thailand",
"Kunst",
"Rakete",
"Spagat",
"Panzer",
"Binde",
"Mut",
"Handel",
"Martini",
"Domina",
"Kabine",
"Hunger",
"Saft",
"Käfig",
"Maske",
"Faust",
"Glied",
"Whisky",
"Veilchen",
"Höhepunkt",
"Schwarz",
"Weiss",
"Pumpe",
"Schwester",
"Banane",
"Haft",
"Rassist",
"Erotik",
"Verschwörung",
"Zwilling",
"Latex",
"Anstoss",
"Rauch",
"Zehe",
"Erbe",
"Speichel",
"Puder",
"Stich",
"Sklave",
"Libido",
"Reiz",
"Geschlecht",
"Munition",
"Hummel",
"Pilz",
"DÉJÀ-VU",
"Ständer",
"Pforte",
"Mafia",
"Ekstase",
"Kuba",
"Ruhe",
"Hof",
"Massage",
"Schinken",
"Verkehr",
"Schraube",
"Lust",
"Haar",
"Absatz",
"Spielzeug",
"Praktikant",
"Callboy",
"Möpse",
"Erpressung",
"Befriedigung",
"Schlamm",
"Gewerbe",
"Schlag",
"Verdienst",
"Spitz",
"Tequila",
"Zigarette",
"Grenze",
"Abzug",
"Probe",
"Stiefel",
"Losung",
"Schlacht",
"Tabu",
"Wrack",
"Rotlicht",
"Fuge",
"Blondine",
"Kraut",
"Talent",
"Molotow",
"Spanner",
"Kurzer",
"Braun",
"Bong",
"Fummeln",
"Falle",
"Mist",
"Betrüger",
"Rammler",
"Handtuch",
"Biene",
"Vibration",
"Nase",
"Hütte",
"Gier",
"Frieden",
"Paar",
"Vorbau",
"Empfängnis",
"Katastrophe",
"Raupe",
"Wurst",
"Club",
"Feuerwerk",
"Diener",
"Heu",
"Pariser",
"Beschneidung",
"Zocker",
"Stiletto",
"Eifersucht",
"Wäsche",
"Reichtum",
"Filmriss",
"Gourmet",
"Antrieb",
"Absteige",
"Alarm",
"Eichel",
"Zwitter",
"Ausschnitt",
"Freiheit",
"Mauer",
"Mord",
"Dreier",
"Sitte",
"Tiger",
"Bondage",
"Zölibart",
"Knete",
"Venus",
"Feigling",
"Trikot",
"Neid",
"Ritze",
"Schwanz",
"Matratze",
"Folter",
"Kiez",
"Spur",
"Ekel",
"Araber",
"Blase",
"Wodka",
"Ehe",
"Zange",
"Bestrechung",
"Schuld",
"Amsterdam",
"Flucht",
"Likör",
"Feuchtgebiet",
"Junggeselle",
"Freude",
"Elefant",
"Sirene",
"Reiter",
"Holz",
"Liebe",
"Freundin",
"Macht",
"Sucht",
"Monster",
"Waffe",
"Creme",
"Handarbeit",
"Partei",
"Warze",
"Respekt",
"Puppe",
"Schnitt",
"Keller",
"Predigt",
"Mobbing",
"Nutte",
"Herpes",
"Orgie",
"Schütze",
"Auster",
"Schnecke",
"Seife",
"Seide",
"Experiment",
"Schnauzer",
"Push-up",
"Nachlass",
"Erfahrung",
"Wiederstand",
"Dusche",
"Kaviar",
"Gummi",
"Stolz",
"Reibe",
"Lutscher",
"Eroberung",
"Schmerz",
"Mönch",
"Schweiss",
"Pille",
"Zucht",
"Rollenspiel",
"Yoga",
"Nougat",
"Kneipe",
"Pelz",
"Affäre",
"Joystick",
"Wachs",
"Palme",
"Zuhälter",
"Horror",
"Rudel",
"Perle",
"Dealer",
"Attentat",
"Finsternis",
"Missionar",
"Keule",
"Nudel",
"Schwein",
"Unfall",
"Sünde",
"Magazin",
"Hölle",
"Pflaume",
"Wein",
"Trick",
"Dampfer",
"Rohr"]